Date,no CAPTCHAs,Passed CAPTCHAs,Failed CAPTCHAs,Total Sessions,Failed Sessions,Average Response Time (seconds),Average score
2018-12-03,0,0,0,0,0,0,
2018-12-04,0,0,0,0,0,0,
2018-12-05,0,0,0,0,0,0,
2018-12-06,0,0,0,0,0,0,
2018-12-07,0,0,0,0,0,0,
2018-12-08,0,0,0,0,0,0,
2018-12-09,0,0,0,0,0,0,
2018-12-10,0,0,0,0,0,0,
2018-12-11,0,0,0,0,0,0,
2018-12-12,0,0,0,0,0,0,
2018-12-13,0,0,0,0,0,0,
2018-12-14,0,0,0,0,0,0,
2018-12-15,0,0,0,0,0,0,
2018-12-16,0,0,0,0,0,0,
2018-12-17,0,0,0,0,0,0,
2018-12-18,0,0,0,0,0,0,
2018-12-19,0,0,0,0,0,0,
2018-12-20,0,0,0,0,0,0,
2018-12-21,0,0,0,0,0,0,
2018-12-22,0,0,0,0,0,0,
2018-12-23,0,0,0,0,0,0,
2018-12-24,0,0,0,0,0,0,
2018-12-25,0,0,0,0,0,0,
2018-12-26,0,0,0,0,0,0,
2018-12-27,0,0,0,0,0,0,
2018-12-28,0,0,0,0,0,0,
2018-12-29,0,0,0,0,0,0,
2018-12-30,0,0,0,0,0,0,
2018-12-31,0,0,0,0,0,0,
2019-01-01,0,0,0,0,0,0,
2019-01-02,0,0,0,0,0,0,
2019-01-03,0,0,0,0,0,0,
2019-01-04,0,0,0,0,0,0,
2019-01-05,0,0,0,0,0,0,
2019-01-06,0,0,0,0,0,0,
2019-01-07,0,0,0,0,0,0,
2019-01-08,0,0,0,0,0,0,
2019-01-09,0,0,0,0,0,0,
2019-01-10,0,0,0,0,0,0,
2019-01-11,0,0,0,0,0,0,
2019-01-12,0,0,0,0,0,0,
2019-01-13,0,0,0,0,0,0,
2019-01-14,0,0,0,0,0,0,
2019-01-15,0,0,0,0,0,0,
2019-01-16,0,0,0,0,0,0,
2019-01-17,0,0,0,0,0,0,
2019-01-18,0,0,0,0,0,0,
2019-01-19,0,0,0,0,0,0,
2019-01-20,0,0,0,0,0,0,
2019-01-21,0,0,0,0,0,0,
2019-01-22,0,0,0,0,0,0,
2019-01-23,0,0,0,0,0,0,
2019-01-24,0,0,0,0,0,0,
2019-01-25,0,0,0,0,0,0,
2019-01-26,0,0,0,0,0,0,
2019-01-27,9,1,0,10,0,0,
2019-01-28,6,0,0,6,0,0,
2019-01-29,5,0,0,5,0,0,
2019-01-30,1,1,0,2,0,0,
2019-01-31,0,0,0,0,0,0,
2019-02-01,0,0,0,0,0,0,
2019-02-02,0,0,0,0,0,0,
2019-02-03,0,0,0,0,0,0,
2019-02-04,0,0,0,0,0,0,
2019-02-05,0,0,0,0,0,0,
2019-02-06,0,0,0,0,0,0,
2019-02-07,0,0,0,0,0,0,
2019-02-08,0,0,0,0,0,0,
2019-02-09,0,0,0,0,0,0,
2019-02-10,0,0,0,0,0,0,
2019-02-11,0,0,0,0,0,0,
2019-02-12,0,0,0,0,0,0,
2019-02-13,0,0,0,0,0,0,
2019-02-14,0,0,0,0,0,0,
2019-02-15,0,0,0,0,0,0,
2019-02-16,0,0,0,0,0,0,
2019-02-17,0,0,0,0,0,0,
2019-02-18,1,0,0,1,0,0,
2019-02-19,0,0,0,0,0,0,
2019-02-20,0,0,0,0,0,0,
2019-02-21,0,0,0,0,0,0,
2019-02-22,0,0,0,0,0,0,
2019-02-23,0,0,0,0,0,0,
2019-02-24,0,0,0,0,0,0,
2019-02-25,0,0,0,0,0,0,
2019-02-26,0,0,0,0,0,0,
2019-02-27,0,0,0,0,0,0,
2019-02-28,0,0,0,0,0,0,
2019-03-01,0,0,0,0,0,0,
2019-03-02,0,0,0,0,0,0,
